rtl/xtop.vcd
$date
	Wed Dec 12 11:40:19 2018
$end
$version
	Icarus Verilog
$end
$timescale
	1ps
$end
$scope module xtop_tb $end
$var wire 32 ! par_out [31:0] $end
$var wire 32 " r0 [31:0] $end
$var wire 32 # r1 [31:0] $end
$var wire 32 $ r10 [31:0] $end
$var wire 32 % r11 [31:0] $end
$var wire 32 & r12 [31:0] $end
$var wire 32 ' r13 [31:0] $end
$var wire 32 ( r14 [31:0] $end
$var wire 32 ) r15 [31:0] $end
$var wire 32 * r2 [31:0] $end
$var wire 32 + r3 [31:0] $end
$var wire 32 , r4 [31:0] $end
$var wire 32 - r5 [31:0] $end
$var wire 32 . r6 [31:0] $end
$var wire 32 / r7 [31:0] $end
$var wire 32 0 r8 [31:0] $end
$var wire 32 1 r9 [31:0] $end
$var wire 7 2 sevenseg [6:0] $end
$var wire 8 3 leds [7:0] $end
$var reg 1 4 PS2_CLK $end
$var reg 1 5 PS2_DATA $end
$var reg 1 6 clk $end
$var reg 4 7 par_addr [3:0] $end
$var reg 32 8 par_in [31:0] $end
$var reg 1 9 par_we $end
$var reg 1 : rst $end
$var integer 32 ; k [31:0] $end
$var integer 32 < start_time [31:0] $end
$scope module uut $end
$var wire 1 4 PS2_CLK $end
$var wire 1 5 PS2_DATA $end
$var wire 1 6 clk $end
$var wire 1 = dp $end
$var wire 4 > par_addr [3:0] $end
$var wire 32 ? par_in [31:0] $end
$var wire 1 @ par_we $end
$var wire 1 A ps2_done $end
$var wire 1 : rst $end
$var wire 7 B sevenseg [6:0] $end
$var wire 32 C regf_data_to_rd [31:0] $end
$var wire 32 D ps2_data_to_rd [31:0] $end
$var wire 32 E prog_data_to_rd [31:0] $end
$var wire 9 F pc [8:0] $end
$var wire 32 G par_out [31:0] $end
$var wire 8 H leds [7:0] $end
$var wire 32 I instruction [31:0] $end
$var wire 1 J data_we $end
$var wire 32 K data_to_wr [31:0] $end
$var wire 1 L data_sel $end
$var wire 10 M data_addr [9:0] $end
$var wire 4 N anodes [3:0] $end
$var reg 1 O cprt_sel $end
$var reg 32 P data_to_rd [31:0] $end
$var reg 1 Q display_sel $end
$var reg 16 R displayed_number [15:0] $end
$var reg 8 S led_input [7:0] $end
$var reg 8 T led_sel [7:0] $end
$var reg 1 U prog_sel $end
$var reg 1 V ps2_rst $end
$var reg 1 W ps2_sel $end
$var reg 1 X regf_sel $end
$scope module FPGA_leds $end
$var wire 1 6 clk $end
$var wire 8 Y led_input [7:0] $end
$var wire 8 Z leds_sel [7:0] $end
$var wire 1 : reset $end
$var reg 8 [ leds [7:0] $end
$var reg 8 \ leds_buffer [7:0] $end
$upscope $end
$scope module controller $end
$var wire 1 6 clk $end
$var wire 32 ] data_to_rd [31:0] $end
$var wire 1 ^ regB_we $end
$var wire 1 : rst $end
$var wire 32 _ regC [31:0] $end
$var wire 32 ` regB_nxt [31:0] $end
$var wire 4 a opcode [3:0] $end
$var wire 1 b negative_nxt $end
$var wire 32 c instruction [31:0] $end
$var wire 32 d imm [31:0] $end
$var wire 32 e data_to_wr [31:0] $end
$var wire 10 f addrint [9:0] $end
$var wire 10 g addr_from_regB [9:0] $end
$var reg 1 h carry $end
$var reg 1 i carry_nxt $end
$var reg 10 j data_addr [9:0] $end
$var reg 1 L data_sel $end
$var reg 32 k data_to_rd_int [31:0] $end
$var reg 1 J data_we $end
$var reg 1 l negative $end
$var reg 1 m overflow $end
$var reg 1 n overflow_nxt $end
$var reg 9 o pc [8:0] $end
$var reg 9 p pc_nxt [8:0] $end
$var reg 32 q regA [31:0] $end
$var reg 32 r regA_nxt [31:0] $end
$var reg 32 s regB [31:0] $end
$var reg 1 t regB_sel $end
$var reg 33 u temp_regA [32:0] $end
$upscope $end
$scope module cprint $end
$var wire 1 6 clk $end
$var wire 8 v data_in [7:0] $end
$var wire 1 O sel $end
$upscope $end
$scope module prog $end
$var wire 1 6 clk $end
$var wire 8 w data_addr [7:0] $end
$var wire 32 x data_in [31:0] $end
$var wire 1 U data_sel $end
$var wire 1 J data_we $end
$var wire 9 y pc [8:0] $end
$var wire 32 z data_out [31:0] $end
$var wire 32 { data_from_rom [31:0] $end
$var wire 32 | data_from_ram [31:0] $end
$var reg 32 } instruction [31:0] $end
$scope module ram $end
$var wire 1 6 clk $end
$var wire 8 ~ data_addr [7:0] $end
$var wire 8 !" data_addr_int [7:0] $end
$var wire 1 "" data_en_int $end
$var wire 32 #" data_in [31:0] $end
$var wire 32 $" data_in_int [31:0] $end
$var wire 32 %" data_out [31:0] $end
$var wire 1 U data_sel $end
$var wire 1 J data_we $end
$var wire 1 &" data_we_int $end
$var wire 1 '" instr_en $end
$var wire 8 (" pc [7:0] $end
$var reg 32 )" data_out_int [31:0] $end
$var reg 32 *" instruction [31:0] $end
$upscope $end
$scope module rom $end
$var wire 1 6 clk $end
$var wire 1 +" en $end
$var wire 4 ," pc [3:0] $end
$var reg 32 -" instruction [31:0] $end
$upscope $end
$upscope $end
$scope module ps2 $end
$var wire 1 4 PS2_CLK $end
$var wire 1 5 PS2_DATA $end
$var wire 1 6 clk $end
$var wire 1 V rst $end
$var reg 8 ." aux [7:0] $end
$var reg 2 /" clksr [1:0] $end
$var reg 3 0" cnt [2:0] $end
$var reg 32 1" data_out [31:0] $end
$var reg 11 2" data_out1 [10:0] $end
$var reg 8 3" data_out_pre [7:0] $end
$var reg 1 4" datafetched $end
$var reg 1 5" dataready $end
$var reg 2 6" datasr [1:0] $end
$var reg 1 7" enter $end
$var reg 8 8" reg1 [7:0] $end
$var reg 8 9" reg2 [7:0] $end
$var reg 8 :" reg3 [7:0] $end
$var reg 8 ;" reg4 [7:0] $end
$var reg 1 <" rxactive $end
$var reg 8 =" rxdata [7:0] $end
$var reg 11 >" rxregister [10:0] $end
$var reg 16 ?" rxtimeout [15:0] $end
$var reg 2 @" state [1:0] $end
$upscope $end
$scope module regf $end
$var wire 1 6 clk $end
$var wire 4 A" ext_addr [3:0] $end
$var wire 32 B" ext_data_in [31:0] $end
$var wire 32 C" ext_data_out [31:0] $end
$var wire 1 @ ext_we $end
$var wire 4 D" int_addr [3:0] $end
$var wire 32 E" int_data_in [31:0] $end
$var wire 32 F" int_data_out [31:0] $end
$var wire 1 X int_sel $end
$var wire 1 J int_we $end
$var wire 1 G" int_we_int $end
$var wire 1 H" we $end
$var wire 32 I" data_in [31:0] $end
$var wire 4 J" addr [3:0] $end
$upscope $end
$scope module seven_seg_display $end
$var wire 1 6 clk $end
$var wire 1 Q display_sel $end
$var wire 16 K" displayed_number [15:0] $end
$var wire 1 = dp $end
$var wire 1 : reset $end
$var reg 4 L" Anode_Activate [3:0] $end
$var reg 4 M" LED_BCD [3:0] $end
$var reg 7 N" LED_out [6:0] $end
$var reg 23 O" cnt [22:0] $end
$var reg 16 P" displayed_number1 [15:0] $end
$var reg 20 Q" refresh_counter [19:0] $end
$upscope $end
$upscope $end
$upscope $end
$enddefinitions $end
#0
$dumpvars
b1 Q"
b0 P"
b0 O"
b1000000 N"
b0 M"
b111 L"
bx K"
bx J"
bx I"
xH"
0G"
bx F"
bx E"
bx D"
bx C"
b11111111111111111111111111111111 B"
b0 A"
b1 @"
b0 ?"
b11111111111 >"
bx ="
0<"
bx ;"
bx :"
bx 9"
bx 8"
x7"
b1x 6"
05"
04"
bx 3"
b0 2"
bx 1"
b0 0"
b1x /"
bx ."
bx -"
bx ,"
1+"
bx *"
bx )"
bx ("
1'"
x&"
bx %"
bx $"
bx #"
0""
bx !"
bx ~
bx }
bx |
bx {
bx z
bx y
bx x
bx w
bx v
bx u
0t
bx s
bx r
bx q
bx p
bx o
0n
xm
xl
b0 k
bx j
xi
xh
bx g
bx f
bx e
bx d
bx c
xb
bx a
bx `
bx00000000000000000000000000000x _
0^
b0 ]
bx \
bx [
b11111111 Z
bx Y
0X
xW
0V
0U
b0 T
bx S
bx R
0Q
b0 P
0O
b111 N
bx M
xL
bx K
xJ
bx I
bx H
bx G
bx F
bx E
bx D
bx C
b1000000 B
zA
z@
b11111111111111111111111111111111 ?
b0 >
1=
bx <
bx ;
0:
09
b0 8
b0 7
16
x5
x4
bx 3
b1000000 2
bx 1
bx 0
bx /
bx .
bx -
bx ,
bx +
bx *
bx )
bx (
bx '
bx &
bx %
bx $
bx #
bx "
bz !
$end
#5000
06
#10000
b10 Q"
bx /"
bx 6"
b0 ?"
bx000000000000000000000000000000x _
0m
16
#11000
1:
#15000
06
#20000
0b
b0 ,"
b0 ("
b0 u
b1 p
b0 r
b0 v
b0 F
b0 o
b0 y
b0 $"
b0 K
b0 e
b0 q
b0 x
b0 #"
b0 E"
b0 ?"
b11 Q"
16
#21000
0:
#25000
06
#30000
xb
bx u
b0 J"
bx k
1t
b0 D"
b0 !"
b0 w
b0 ~
b0 M
b0 j
0&"
0J
0L
b0 d
b0 f
b110 a
b10 p
b1100000000000000000000000000000 I
b1100000000000000000000000000000 c
b1100000000000000000000000000000 }
b1 ,"
b1 ("
b100 Q"
b0 ?"
b0 |
b0 *"
b1100000000000000000000000000000 {
b1100000000000000000000000000000 -"
b0x _
0l
b1 F
b1 o
b1 y
16
#35000
06
#40000
1H"
1G"
b10000 !"
b10000 w
b10000 ~
bx P
bx ]
1X
1&"
1J
1L
b10000 M
b10000 j
b10000 d
b10000 f
b1001 a
0t
b11 p
b10 ,"
b10 ("
b10010000000000000000000000010000 I
b10010000000000000000000000010000 c
b10010000000000000000000000010000 }
bx000000000000000000000000000000x _
xl
b10 F
b10 o
b10 y
b10010000000000000000000000010000 {
b10010000000000000000000000010000 -"
b0 ?"
b101 Q"
16
#45000
06
#50000
xH"
0G"
bx P
bx ]
1X
0&"
0J
1L
bx r
b1000 a
b100 p
b10000000000000000000000000010000 I
b10000000000000000000000000010000 c
b10000000000000000000000000010000 }
b11 ,"
b11 ("
b110 Q"
b0 ?"
b10000000000000000000000000100101 |
b10000000000000000000000000100101 *"
b10000000000000000000000000010000 {
b10000000000000000000000000010000 -"
b11 F
b11 o
b11 y
16
#55000
06
#60000
bx0 J"
b1110 D"
b11111110 !"
b11111110 w
b11111110 ~
1""
1U
b1111111110 M
b1111111110 j
0L
b11111111111111111111111111111110 d
b1111111110 f
b1100 a
b100 ,"
b100 ("
b101 p
bx v
bx P
bx ]
0X
b11001111111111111111111111111110 I
b11001111111111111111111111111110 c
b11001111111111111111111111111110 }
b100 F
b100 o
b100 y
bx $"
bx K
bx e
bx q
bx x
bx #"
bx E"
b11001111111111111111111111111110 {
b11001111111111111111111111111110 -"
b0 |
b0 *"
b0 ?"
b111 Q"
16
#65000
06
#70000
b0 J"
1t
b0 D"
b0 !"
b0 w
b0 ~
b0 M
b0 j
xn
bx k
b0 d
b0 f
b0 a
b0 P
b0 ]
0""
0U
b110 p
b0 I
b0 c
b0 }
b101 ,"
b101 ("
b1000 Q"
b0 ?"
b0 E
b0 z
b0 %"
b0 )"
b0 {
b0 -"
b101 F
b101 o
b101 y
16
#71000
b1000111 <
b1 8
19
#75000
06
#80000
1t
b111 p
b110 ,"
b110 ("
bx00000000000000000000000000000x _
xm
b110 F
b110 o
b110 y
b0 ?"
b1001 Q"
16
#81000
b0 ;
09
#85000
06
#90000
bx00x J"
b0 k
0t
b1001 D"
b11111001 !"
b11111001 w
b11111001 ~
b11111001 M
b11111001 j
0n
b11111001 d
b11111001 f
b1110 a
b1000 p
b11100000000000000000000011111001 I
b11100000000000000000000011111001 c
b11100000000000000000000011111001 }
b111 ,"
b111 ("
b1010 Q"
b0 ?"
b10010000000000000000000000010100 |
b10010000000000000000000000010100 *"
b11100000000000000000000011111001 {
b11100000000000000000000011111001 -"
b111 F
b111 o
b111 y
16
#91000
b1 ;
b1 7
#95000
06
#100000
b0 J"
bx k
1t
b0 D"
b0 !"
b0 w
b0 ~
b0 M
b0 j
xn
b0 d
b0 f
b0 a
b1001 p
b1000 ,"
b1000 ("
b0 I
b0 c
b0 }
bx000000000000000000000000000000x _
0m
b1000 F
b1000 o
b1000 y
b0 {
b0 -"
b0 |
b0 *"
b0 ?"
b1011 Q"
16
#101000
b10 ;
b10 7
#105000
06
#110000
1t
b1010 p
b1001 ,"
b1001 ("
b1100 Q"
b0 ?"
bx00000000000000000000000000000x _
xm
b1001 F
b1001 o
b1001 y
16
#111000
b11 ;
b11 7
#115000
06
#120000
b1011 p
b1010 ,"
b1010 ("
b1010 F
b1010 o
b1010 y
b0 ?"
b1101 Q"
16
#121000
b100 ;
b100 7
#125000
06
#130000
b1100 p
b1011 ,"
b1011 ("
b1110 Q"
b0 ?"
b1011 F
b1011 o
b1011 y
16
#131000
b101 ;
b101 7
#135000
06
#140000
b1101 p
b1100 ,"
b1100 ("
b1100 F
b1100 o
b1100 y
b11001111111111111111111111110100 |
b11001111111111111111111111110100 *"
b0 ?"
b1111 Q"
16
#141000
b110 ;
b110 7
#145000
06
#150000
b1110 p
b1101 ,"
b1101 ("
b10000 Q"
b0 ?"
b0 |
b0 *"
b1101 F
b1101 o
b1101 y
16
#151000
b111 ;
b111 7
#155000
06
#160000
b1111 p
b1110 ,"
b1110 ("
b1110 F
b1110 o
b1110 y
b0 ?"
b10001 Q"
16
#161000
b1000 ;
b1000 7
#165000
06
#170000
b10000 p
b1111 ,"
b1111 ("
b10010 Q"
b0 ?"
b10000000000000000000000000010100 |
b10000000000000000000000000010100 *"
b1111 F
b1111 o
b1111 y
16
#171000
b1001 ;
b1001 7
#175000
06
#180000
b10001 p
b0 ,"
b10000 ("
b10000 F
b10000 o
b10000 y
b0 |
b0 *"
b0 ?"
b10011 Q"
16
#181000
b1010 ;
b1010 7
#185000
06
#190000
0n
b0 r
b110 a
b10010 p
b1100000000000000000000000000000 I
b1100000000000000000000000000000 c
b1100000000000000000000000000000 }
b1 ,"
b10001 ("
b10100 Q"
b0 ?"
b1100000000000000000000000000000 {
b1100000000000000000000000000000 -"
b10001 F
b10001 o
b10001 y
16
#191000
b1011 ;
b1011 7
#195000
06
#200000
1H"
1G"
b10000 !"
b10000 w
b10000 ~
bx P
bx ]
1X
1&"
1J
1L
b10000 M
b10000 j
b10000 d
b10000 f
b1001 a
0t
b10 ,"
b10010 ("
b10011 p
b0 v
b10010000000000000000000000010000 I
b10010000000000000000000000010000 c
b10010000000000000000000000010000 }
bx000000000000000000000000000000x _
0m
b10010 F
b10010 o
b10010 y
b0 $"
b0 K
b0 e
b0 q
b0 x
b0 #"
b0 E"
b10010000000000000000000000010000 {
b10010000000000000000000000010000 -"
b10010000000000000000000000100100 |
b10010000000000000000000000100100 *"
b0 ?"
b10101 Q"
16
#201000
b1100 ;
b1100 7
#205000
06
#210000
xH"
0G"
bx P
bx ]
1X
0&"
0J
1L
bx r
b1000 a
b10100 p
b10000000000000000000000000010000 I
b10000000000000000000000000010000 c
b10000000000000000000000000010000 }
b11 ,"
b10011 ("
b10110 Q"
b0 ?"
b0 |
b0 *"
b10000000000000000000000000010000 {
b10000000000000000000000000010000 -"
b10011 F
b10011 o
b10011 y
16
#211000
b1101 ;
b1101 7
#215000
06
#220000
bx0 J"
b0 k
b1110 D"
b11111110 !"
b11111110 w
b11111110 ~
1""
1U
b1111111110 M
b1111111110 j
0L
b11111111111111111111111111111110 d
b1111111110 f
b1100 a
b100 ,"
b10100 ("
b10101 p
bx v
b0 P
b0 ]
0X
b11001111111111111111111111111110 I
b11001111111111111111111111111110 c
b11001111111111111111111111111110 }
b10100 F
b10100 o
b10100 y
bx $"
bx K
bx e
bx q
bx x
bx #"
bx E"
b11001111111111111111111111111110 {
b11001111111111111111111111111110 -"
b0 ?"
b10111 Q"
16
#221000
b1110 ;
b1110 7
#225000
06
#230000
b0 J"
bx k
1t
b0 D"
b0 !"
b0 w
b0 ~
0""
0U
b0 M
b0 j
xn
b0 d
b0 f
b0 a
b10110 p
b0 I
b0 c
b0 }
b101 ,"
b10101 ("
b11000 Q"
b0 ?"
b1100000000000000000000000000001 |
b1100000000000000000000000000001 *"
b0 {
b0 -"
b10101 F
b10101 o
b10101 y
16
#231000
b1111 ;
b1111 7
#235000
06
#240000
1t
b10111 p
b110 ,"
b10110 ("
bx00000000000000000000000000000x _
xm
b10110 F
b10110 o
b10110 y
b11101111111111111111111111101010 |
b11101111111111111111111111101010 *"
b0 ?"
b11001 Q"
16
#241000
b10000 ;
b0 7
#245000
06
#250000
bx00x J"
b0 k
0t
b1001 D"
b11111001 !"
b11111001 w
b11111001 ~
b11111001 M
b11111001 j
0n
b11111001 d
b11111001 f
b1110 a
b11000 p
b11100000000000000000000011111001 I
b11100000000000000000000011111001 c
b11100000000000000000000011111001 }
b111 ,"
b10111 ("
b11010 Q"
b0 ?"
b0 |
b0 *"
b11100000000000000000000011111001 {
b11100000000000000000000011111001 -"
b10111 F
b10111 o
b10111 y
16
