rtl/xtop.vcd
$date
	Wed Nov 21 12:40:05 2018
$end
$version
	Icarus Verilog
$end
$timescale
	1ps
$end
$scope module xtop_tb $end
$var wire 32 ! r0 [31:0] $end
$var wire 32 " r1 [31:0] $end
$var wire 32 # r10 [31:0] $end
$var wire 32 $ r11 [31:0] $end
$var wire 32 % r12 [31:0] $end
$var wire 32 & r13 [31:0] $end
$var wire 32 ' r14 [31:0] $end
$var wire 32 ( r15 [31:0] $end
$var wire 32 ) r2 [31:0] $end
$var wire 32 * r3 [31:0] $end
$var wire 32 + r4 [31:0] $end
$var wire 32 , r5 [31:0] $end
$var wire 32 - r6 [31:0] $end
$var wire 32 . r7 [31:0] $end
$var wire 32 / r8 [31:0] $end
$var wire 32 0 r9 [31:0] $end
$var wire 32 1 par_out [31:0] $end
$var reg 1 2 PS2_CLK $end
$var reg 1 3 PS2_DATA $end
$var reg 1 4 clk $end
$var reg 4 5 par_addr [3:0] $end
$var reg 32 6 par_in [31:0] $end
$var reg 1 7 par_we $end
$var reg 1 8 rst $end
$var integer 32 9 k [31:0] $end
$var integer 32 : start_time [31:0] $end
$scope module uut $end
$var wire 1 2 PS2_CLK $end
$var wire 1 3 PS2_DATA $end
$var wire 1 4 clk $end
$var wire 4 ; par_addr [3:0] $end
$var wire 32 < par_in [31:0] $end
$var wire 1 7 par_we $end
$var wire 1 8 rst $end
$var wire 32 = regf_data_to_rd [31:0] $end
$var wire 1 > ps2_done $end
$var wire 11 ? ps2_data_to_rd [10:0] $end
$var wire 32 @ prog_data_to_rd [31:0] $end
$var wire 9 A pc [8:0] $end
$var wire 32 B par_out [31:0] $end
$var wire 32 C instruction [31:0] $end
$var wire 1 D data_we $end
$var wire 32 E data_to_wr [31:0] $end
$var wire 1 F data_sel $end
$var wire 10 G data_addr [9:0] $end
$var reg 1 H cprt_sel $end
$var reg 32 I data_to_rd [31:0] $end
$var reg 1 J prog_sel $end
$var reg 1 K ps2_rst $end
$var reg 1 L ps2_sel $end
$var reg 1 M regf_sel $end
$scope module controller $end
$var wire 1 4 clk $end
$var wire 32 N data_to_rd [31:0] $end
$var wire 1 O regB_we $end
$var wire 1 8 rst $end
$var wire 32 P regC [31:0] $end
$var wire 32 Q regB_nxt [31:0] $end
$var wire 4 R opcode [3:0] $end
$var wire 1 S negative_nxt $end
$var wire 32 T instruction [31:0] $end
$var wire 32 U imm [31:0] $end
$var wire 32 V data_to_wr [31:0] $end
$var wire 10 W addrint [9:0] $end
$var wire 10 X addr_from_regB [9:0] $end
$var reg 1 Y carry $end
$var reg 1 Z carry_nxt $end
$var reg 10 [ data_addr [9:0] $end
$var reg 1 F data_sel $end
$var reg 32 \ data_to_rd_int [31:0] $end
$var reg 1 D data_we $end
$var reg 1 ] negative $end
$var reg 1 ^ overflow $end
$var reg 1 _ overflow_nxt $end
$var reg 9 ` pc [8:0] $end
$var reg 9 a pc_nxt [8:0] $end
$var reg 32 b regA [31:0] $end
$var reg 32 c regA_nxt [31:0] $end
$var reg 32 d regB [31:0] $end
$var reg 1 e regB_sel $end
$var reg 33 f temp_regA [32:0] $end
$upscope $end
$scope module cprint $end
$var wire 1 4 clk $end
$var wire 8 g data_in [7:0] $end
$var wire 1 H sel $end
$upscope $end
$scope module prog $end
$var wire 1 4 clk $end
$var wire 8 h data_addr [7:0] $end
$var wire 32 i data_in [31:0] $end
$var wire 1 J data_sel $end
$var wire 1 D data_we $end
$var wire 9 j pc [8:0] $end
$var wire 32 k data_out [31:0] $end
$var wire 32 l data_from_rom [31:0] $end
$var wire 32 m data_from_ram [31:0] $end
$var reg 32 n instruction [31:0] $end
$scope module ram $end
$var wire 1 4 clk $end
$var wire 8 o data_addr [7:0] $end
$var wire 8 p data_addr_int [7:0] $end
$var wire 1 q data_en_int $end
$var wire 32 r data_in [31:0] $end
$var wire 32 s data_in_int [31:0] $end
$var wire 32 t data_out [31:0] $end
$var wire 1 J data_sel $end
$var wire 1 D data_we $end
$var wire 1 u data_we_int $end
$var wire 1 v instr_en $end
$var wire 8 w pc [7:0] $end
$var reg 32 x data_out_int [31:0] $end
$var reg 32 y instruction [31:0] $end
$upscope $end
$scope module rom $end
$var wire 1 4 clk $end
$var wire 1 z en $end
$var wire 4 { pc [3:0] $end
$var reg 32 | instruction [31:0] $end
$upscope $end
$upscope $end
$scope module ps2 $end
$var wire 1 2 PS2_CLK $end
$var wire 1 3 PS2_DATA $end
$var wire 1 4 clk $end
$var wire 1 K rst $end
$var reg 4 } counter [3:0] $end
$var reg 11 ~ data_in [10:0] $end
$var reg 11 !" data_out [10:0] $end
$var reg 1 > done $end
$upscope $end
$scope module regf $end
$var wire 1 4 clk $end
$var wire 4 "" ext_addr [3:0] $end
$var wire 32 #" ext_data_in [31:0] $end
$var wire 32 $" ext_data_out [31:0] $end
$var wire 1 7 ext_we $end
$var wire 4 %" int_addr [3:0] $end
$var wire 32 &" int_data_in [31:0] $end
$var wire 32 '" int_data_out [31:0] $end
$var wire 1 M int_sel $end
$var wire 1 D int_we $end
$var wire 1 (" int_we_int $end
$var wire 1 )" we $end
$var wire 32 *" data_in [31:0] $end
$var wire 4 +" addr [3:0] $end
$upscope $end
$upscope $end
$upscope $end
$enddefinitions $end
#0
$dumpvars
bx +"
bx *"
0)"
0("
bx '"
bx &"
bx %"
bx $"
b0 #"
b0 ""
bx !"
b0 ~
b0 }
bx |
bx {
1z
bx y
bx x
bx w
1v
xu
bx t
bx s
bx r
0q
bx p
bx o
bx n
bx m
bx l
bx k
bx j
bx i
bx h
bx g
bx f
0e
bx d
bx c
bx b
bx a
bx `
0_
x^
x]
b0 \
bx [
xZ
xY
bx X
bx W
bx V
bx U
bx T
xS
bx R
bx Q
bx00000000000000000000000000000x P
0O
b0 N
0M
0L
xK
0J
b0 I
0H
bx G
xF
bx E
xD
bx C
bx B
bx A
bx @
bx ?
0>
bx =
b0 <
b0 ;
bx :
bx 9
08
07
b0 6
b0 5
14
x3
x2
bx 1
bx 0
bx /
bx .
bx -
bx ,
bx +
bx *
bx )
bx (
bx '
bx &
bx %
bx $
bx #
bx "
bx !
$end
#5000
04
#10000
bx000000000000000000000000000000x P
0^
14
#11000
18
#15000
04
#20000
0S
b0 {
b0 w
b0 f
b1 a
b0 c
b0 *"
b0 g
b0 A
b0 `
b0 j
b0 s
b0 E
b0 V
b0 b
b0 i
b0 r
b0 &"
14
#21000
08
#25000
04
#30000
xS
bx f
b0 +"
bx \
1e
b0 %"
b0 p
b0 h
b0 o
b0 G
b0 [
0u
0D
0F
b0 U
b0 W
b110 R
b10 a
b1100000000000000000000000000000 C
b1100000000000000000000000000000 T
b1100000000000000000000000000000 n
b1 {
b1 w
b10100000000000000000000000000000 m
b10100000000000000000000000000000 y
b1100000000000000000000000000000 l
b1100000000000000000000000000000 |
b0x P
0]
b1 A
b1 `
b1 j
14
#35000
04
#40000
1)"
1("
b10000 p
b10000 h
b10000 o
bx I
bx N
1M
1u
1D
1F
b10000 G
b10000 [
b10000 U
b10000 W
b1001 R
0e
b11 a
b10 {
b10 w
b10010000000000000000000000010000 C
b10010000000000000000000000010000 T
b10010000000000000000000000010000 n
bx000000000000000000000000000000x P
x]
b10 A
b10 `
b10 j
b10010000000000000000000000010000 l
b10010000000000000000000000010000 |
14
#45000
04
#50000
0)"
0("
0S
0u
0D
1F
b0 f
b0 \
b1000 R
b0 I
b0 N
1M
b100 a
b10000000000000000000000000010000 C
b10000000000000000000000000010000 T
b10000000000000000000000000010000 n
b11 {
b11 w
b0 =
b0 '"
b0 1
b0 B
b0 $"
b0 !
b10010000000000000000000000100101 m
b10010000000000000000000000100101 y
b10000000000000000000000000010000 l
b10000000000000000000000000010000 |
b11 A
b11 `
b11 j
14
#55000
04
#60000
xS
bx f
b1110 +"
bx \
bx =
bx '"
b1110 %"
b11111110 p
b11111110 h
b11111110 o
bx I
bx N
1q
1J
0M
b1111111110 G
b1111111110 [
0F
b11111111111111111111111111111111 c
b11111111111111111111111111111110 U
b1111111110 W
b1100 R
b10 a
b100 {
b100 w
b11001111111111111111111111111110 C
b11001111111111111111111111111110 T
b11001111111111111111111111111110 n
b0x P
0]
b100 A
b100 `
b100 j
b11001111111111111111111111111110 l
b11001111111111111111111111111110 |
b10000000000000000000000000000000 m
b10000000000000000000000000000000 y
14
#65000
04
#70000
b1 +"
b1 %"
b1 p
b1 h
b1 o
1Z
0S
b1 G
b1 [
b100000000000000000000000000000000 f
bx000000000000000000000000000000x \
b1 U
b1 W
b0 R
b0 I
b0 N
0q
0J
b1 C
b1 T
b1 n
b10 {
b10 w
b0 c
b11 a
b11111111111111111111111111111111 *"
b11111111 g
b0 @
b0 k
b0 t
b0 x
b1 m
b1 y
b1 l
b1 |
bx000000000000000000000000000000x P
x]
b10 A
b10 `
b10 j
b11111111111111111111111111111111 s
b11111111111111111111111111111111 E
b11111111111111111111111111111111 V
b11111111111111111111111111111111 b
b11111111111111111111111111111111 i
b11111111111111111111111111111111 r
b11111111111111111111111111111111 &"
14
#71000
b0 +"
b1 *"
1)"
b1000111 :
b1 6
b1 <
b1 #"
17
#75000
04
#80000
0S
b1 =
b1 '"
b0 %"
b10000 p
b10000 h
b10000 o
b1 I
b1 N
1M
1F
b10000 G
b10000 [
b1 c
b10000 U
b10000 W
b1000 R
b1 \
b11 {
b11 w
b1 f
b100 a
b0 g
b10000000000000000000000000010000 C
b10000000000000000000000000010000 T
b10000000000000000000000000010000 n
1Y
b1 P
0]
b11 A
b11 `
b11 j
b0 s
b0 E
b0 V
b0 b
b0 i
b0 r
b0 &"
b10000000000000000000000000010000 l
b10000000000000000000000000010000 |
b10010000000000000000000000100101 m
b10010000000000000000000000100101 y
b1 1
b1 B
b1 $"
b1 !
14
#81000
b0 *"
0)"
07
#85000
04
#90000
b1110 +"
b0 \
bx =
bx '"
b1110 %"
b11111110 p
b11111110 h
b11111110 o
1q
1J
b0 I
b0 N
0M
b1111111110 G
b1111111110 [
0F
b0 c
b11111111111111111111111111111110 U
b1111111110 W
b1100 R
b11001111111111111111111111111110 C
b11001111111111111111111111111110 T
b11001111111111111111111111111110 n
b100 {
b100 w
b1 f
b101 a
b1 *"
b1 g
b10000000000000000000000000000000 m
b10000000000000000000000000000000 y
b11001111111111111111111111111110 l
b11001111111111111111111111111110 |
b100 A
b100 `
b100 j
b1 s
b1 E
b1 V
b1 b
b1 i
b1 r
b1 &"
14
#95000
04
#100000
b1 +"
b1 \
b1 %"
b1 p
b1 h
b1 o
0q
0J
b1 G
b1 [
0Z
b1 U
b1 W
b0 R
b101 {
b101 w
b1 f
b1 c
b110 a
b0 *"
b0 g
b1 C
b1 T
b1 n
b101 A
b101 `
b101 j
b0 s
b0 E
b0 V
b0 b
b0 i
b0 r
b0 &"
b1 l
b1 |
b1 m
b1 y
14
#105000
04
#110000
b1010 +"
b1010 %"
b11111010 p
b11111010 h
b11111010 o
b11111010 G
b11111010 [
b11111010 U
b11111010 W
b1110 R
b0 c
b0 \
b11100000000000000000000011111010 C
b11100000000000000000000011111010 T
b11100000000000000000000011111010 n
b110 {
b110 w
b1 f
b100000000 a
b1 *"
b1 g
b10010000000000000000000000000000 m
b10010000000000000000000000000000 y
b11100000000000000000000011111010 l
b11100000000000000000000011111010 |
b0 P
0Y
b110 A
b110 `
b110 j
b1 s
b1 E
b1 V
b1 b
b1 i
b1 r
b1 &"
14
#115000
04
#120000
b1 +"
b1 %"
b1 p
b1 h
b1 o
b1 G
b1 [
b1 U
b1 W
b110 R
b0 {
b0 w
b0 f
b1 c
b100000001 a
b0 *"
b0 g
b1100000000000000000000000000001 C
b1100000000000000000000000000001 T
b1100000000000000000000000000001 n
b100000000 A
b100000000 `
b100000000 j
b0 s
b0 E
b0 V
b0 b
b0 i
b0 r
b0 &"
b0 l
b0 |
b1100000000000000000000000000001 m
b1100000000000000000000000000001 y
14
#125000
04
#130000
bx +"
bx %"
bx p
bx h
bx o
bx G
bx [
b0 c
b0 U
b0 W
b1010 R
b10100000000000000000000000000000 C
b10100000000000000000000000000000 T
b10100000000000000000000000000000 n
b1 {
b1 w
b1 f
b100000010 a
b1 *"
b1 g
b10100000000000000000000000000000 m
b10100000000000000000000000000000 y
b1100000000000000000000000000000 l
b1100000000000000000000000000000 |
b100000001 A
b100000001 `
b100000001 j
b1 s
b1 E
b1 V
b1 b
b1 i
b1 r
b1 &"
14
#135000
04
#140000
b10 {
b10 w
b0 f
b100000011 a
b0 *"
b0 g
b100000010 A
b100000010 `
b100000010 j
b0 s
b0 E
b0 V
b0 b
b0 i
b0 r
b0 &"
b10010000000000000000000000010000 l
b10010000000000000000000000010000 |
14
#145000
04
#150000
xS
bx f
b101 +"
b0xxxxxxxxxxx \
b101 %"
b100101 p
b100101 h
b100101 o
b0xxxxxxxxxxx I
b0xxxxxxxxxxx N
1L
1u
1D
1F
b100101 G
b100101 [
b100101 U
b100101 W
b1001 R
b100000100 a
b10010000000000000000000000100101 C
b10010000000000000000000000100101 T
b10010000000000000000000000100101 n
b11 {
b11 w
b10010000000000000000000000100101 m
b10010000000000000000000000100101 y
b10000000000000000000000000010000 l
b10000000000000000000000000010000 |
b100000011 A
b100000011 `
b100000011 j
14
#155000
04
#160000
b0 +"
bx \
1e
b1 =
b1 '"
b0 %"
b0 p
b0 h
b0 o
b0 I
b0 N
0L
b0 G
b0 [
0u
0D
0F
bx c
b0 U
b0 W
b1000 R
b100000101 a
b100 {
b100 w
b10000000000000000000000000000000 C
b10000000000000000000000000000000 T
b10000000000000000000000000000000 n
bx0000000000000000000000000000000 P
x]
b100000100 A
b100000100 `
b100000100 j
b11001111111111111111111111111110 l
b11001111111111111111111111111110 |
b10000000000000000000000000000000 m
b10000000000000000000000000000000 y
14
#165000
04
#170000
b1 +"
bx0000000000000000000000000000000 \
0e
bx =
bx '"
b1 %"
b1 p
b1 h
b1 o
b1 G
b1 [
x_
xZ
b1 U
b1 W
b0 R
b1 C
b1 T
b1 n
b101 {
b101 w
b100000110 a
bx *"
bx g
b1 m
b1 y
b1 l
b1 |
b100000101 A
b100000101 `
b100000101 j
bx s
bx E
bx V
bx b
bx i
bx r
bx &"
14
#175000
04
#180000
b0 +"
1O
1e
b1 =
b1 '"
b0 %"
b0 p
b0 h
b0 o
1u
1D
b0 G
b0 [
0_
b0 U
b0 W
b1001 R
bx \
b100000111 a
b110 {
b110 w
b10010000000000000000000000000000 C
b10010000000000000000000000000000 T
b10010000000000000000000000000000 n
xY
bx00000000000000000000000000000x P
x^
b100000110 A
b100000110 `
b100000110 j
b11100000000000000000000011111010 l
b11100000000000000000000011111010 |
b10010000000000000000000000000000 m
b10010000000000000000000000000000 y
14
#185000
04
#190000
b1 +"
bx000000000000000000000000000000x \
bx =
bx '"
b1 %"
b1 p
b1 h
b1 o
0O
b1 G
b1 [
0u
0D
b1 c
b1 U
b1 W
b110 R
0e
b100001000 a
b1100000000000000000000000000001 C
b1100000000000000000000000000001 T
b1100000000000000000000000000001 n
b111 {
b111 w
b1100000000000000000000000000001 m
b1100000000000000000000000000001 y
b0 l
b0 |
bx000000000000000000000000000000x P
0^
b100000111 A
b100000111 `
b100000111 j
14
#195000
04
#200000
1)"
b10 +"
1("
bx \
b10 %"
b10010 p
b10010 h
b10010 o
bx I
bx N
1M
1u
1D
1F
b10010 G
b10010 [
b10010 U
b10010 W
b1001 R
b1000 {
b1000 w
b100001001 a
b1 *"
b1 g
b10010000000000000000000000010010 C
b10010000000000000000000000010010 T
b10010000000000000000000000010010 n
b100001000 A
b100001000 `
b100001000 j
b1 s
b1 E
b1 V
b1 b
b1 i
b1 r
b1 &"
b10010000000000000000000000010010 m
b10010000000000000000000000010010 y
14
#205000
04
#210000
bx c
b0 +"
0)"
1e
b0 %"
b0 p
b0 h
b0 o
0("
xS
b0 G
b0 [
0u
0D
0F
bx f
bx \
b0 U
b0 W
b1000 R
b0 I
b0 N
0M
b100001010 a
b10000000000000000000000000000000 C
b10000000000000000000000000000000 T
b10000000000000000000000000000000 n
b1001 {
b1001 w
b1 =
b1 '"
b1 )
b10000000000000000000000000000000 m
b10000000000000000000000000000000 y
b100001001 A
b100001001 `
b100001001 j
14
#215000
04
#220000
b0x c
b10 +"
b1 \
0e
b10 %"
b10010 p
b10010 h
b10010 o
b1 I
b1 N
b10010 G
b10010 [
b10010 U
b10010 W
b100 R
b1010 {
b1010 w
b100001011 a
bx *"
bx g
b1000000000000000000000000010010 C
b1000000000000000000000000010010 T
b1000000000000000000000000010010 n
b100001010 A
b100001010 `
b100001010 j
bx s
bx E
bx V
bx b
bx i
bx r
bx &"
b1000000000000000000000000010010 m
b1000000000000000000000000010010 y
14
#225000
04
#230000
b101 +"
b0 \
bx =
bx '"
b101 %"
b11110101 p
b11110101 h
b11110101 o
1q
1J
b0 I
b0 N
b1111110101 G
b1111110101 [
bx c
b11111111111111111111111111110101 U
b1111110101 W
b1100 R
b11001111111111111111111111110101 C
b11001111111111111111111111110101 T
b11001111111111111111111111110101 n
b1011 {
b1011 w
b100001100 a
b0x *"
b0x g
b11001111111111111111111111110101 m
b11001111111111111111111111110101 y
b100001011 A
b100001011 `
b100001011 j
b0x s
b0x E
b0x V
b0x b
b0x i
b0x r
b0x &"
14
#235000
04
#240000
b0 +"
bx \
1e
b1 =
b1 '"
b0 %"
b0 p
b0 h
b0 o
0q
0J
b0 G
b0 [
x_
b0 U
b0 W
b0 R
b1100 {
b1100 w
b100001101 a
bx *"
bx g
b0 C
b0 T
b0 n
b100001100 A
b100001100 `
b100001100 j
bx s
bx E
bx V
bx b
bx i
bx r
bx &"
b0 m
b0 y
14
#245000
04
#250000
1e
b100001110 a
b1101 {
b1101 w
bx00000000000000000000000000000x P
x^
b100001101 A
b100001101 `
b100001101 j
14
#255000
04
#260000
b0 \
0e
b100000 p
b100000 h
b100000 o
1H
1u
1D
1F
b100000 G
b100000 [
0_
b100000 U
b100000 W
b1001 R
b100001111 a
b1110 {
b1110 w
b10010000000000000000000000100000 C
b10010000000000000000000000100000 T
b10010000000000000000000000100000 n
b100001110 A
b100001110 `
b100001110 j
b10010000000000000000000000100000 m
b10010000000000000000000000100000 y
14
#265000
04
#270000
bx \
1e
b0 p
b0 h
b0 o
0H
b0 G
b0 [
0u
0D
0F
b0 c
b0 U
b0 W
b110 R
b100010000 a
b1100000000000000000000000000000 C
b1100000000000000000000000000000 T
b1100000000000000000000000000000 n
b1111 {
b1111 w
b1100000000000000000000000000000 m
b1100000000000000000000000000000 y
bx000000000000000000000000000000x P
0^
b100001111 A
b100001111 `
b100001111 j
14
#275000
04
#280000
0S
b0 f
b0 \
0e
b11110000 p
b11110000 h
b11110000 o
1q
1J
b1011110000 G
b1011110000 [
b11111111111111111111111111111111 c
b11111111111111111111111011110000 U
b1011110000 W
b1100 R
b0 {
b10000 w
b0 a
b0 *"
b0 g
b11001111111111111111111011110000 C
b11001111111111111111111011110000 T
b11001111111111111111111011110000 n
b100010000 A
b100010000 `
b100010000 j
b0 s
b0 E
b0 V
b0 b
b0 i
b0 r
b0 &"
b11001111111111111111111011110000 m
b11001111111111111111111011110000 y
14
#285000
04
#290000
bx \
1e
b0 p
b0 h
b0 o
0q
0J
b0 G
b0 [
b0 U
b0 W
b110 R
xS
b1100000000000000000000000000000 C
b1100000000000000000000000000000 T
b1100000000000000000000000000000 n
b0 w
bx f
b0 c
b1 a
b11111111111111111111111111111111 *"
b11111111 g
b0 m
b0 y
b1100000000000000000000000000000 l
b1100000000000000000000000000000 |
b0x P
0]
b0 A
b0 `
b0 j
b11111111111111111111111111111111 s
b11111111111111111111111111111111 E
b11111111111111111111111111111111 V
b11111111111111111111111111111111 b
b11111111111111111111111111111111 i
b11111111111111111111111111111111 r
b11111111111111111111111111111111 &"
14
#295000
04
#300000
1e
b1 {
b1 w
b10 a
b0 *"
b0 g
bx000000000000000000000000000000x P
x]
b1 A
b1 `
b1 j
b0 s
b0 E
b0 V
b0 b
b0 i
b0 r
b0 &"
b10100000000000000000000000000000 m
b10100000000000000000000000000000 y
14
#305000
04
#310000
0S
1)"
b1 f
1("
b1 \
0e
b10000 p
b10000 h
b10000 o
b1 I
b1 N
1M
1u
1D
1F
b10000 G
b10000 [
b10000 U
b10000 W
b1001 R
b11 a
b10010000000000000000000000010000 C
b10010000000000000000000000010000 T
b10010000000000000000000000010000 n
b10 {
b10 w
b10010000000000000000000000010000 l
b10010000000000000000000000010000 |
b10 A
b10 `
b10 j
14
#315000
04
#320000
0)"
0("
0u
0D
1F
b0 f
b1000 R
b0 \
b100 a
b11 {
b11 w
b10000000000000000000000000010000 C
b10000000000000000000000000010000 T
b10000000000000000000000000010000 n
b0 I
b0 N
1M
b0x P
0]
b11 A
b11 `
b11 j
b10000000000000000000000000010000 l
b10000000000000000000000000010000 |
b10010000000000000000000000100101 m
b10010000000000000000000000100101 y
b0 =
b0 '"
b0 1
b0 B
b0 $"
b0 !
14
#321000
b0 9
#325000
04
#330000
b1110 +"
bx =
bx '"
b1110 %"
b11111110 p
b11111110 h
b11111110 o
1q
1J
0M
b1111111110 G
b1111111110 [
0F
b11111111111111111111111111111111 c
b11111111111111111111111111111110 U
b1111111110 W
b1100 R
b10 a
b11001111111111111111111111111110 C
b11001111111111111111111111111110 T
b11001111111111111111111111111110 n
b100 {
b100 w
b10000000000000000000000000000000 m
b10000000000000000000000000000000 y
b11001111111111111111111111111110 l
b11001111111111111111111111111110 |
b100 A
b100 `
b100 j
14
#331000
b1 9
bx 1
bx B
bx $"
b1 5
b1 ;
b1 ""
#335000
04
#340000
b1 +"
b0x \
b1 %"
b1 p
b1 h
b1 o
0q
0J
b1 G
b1 [
1Z
0S
b1 U
b1 W
b0 R
b10 {
b10 w
b100000000000000000000000000000000 f
b0 c
b11 a
b11111111111111111111111111111111 *"
b11111111 g
b1 C
b1 T
b1 n
b10 A
b10 `
b10 j
b11111111111111111111111111111111 s
b11111111111111111111111111111111 E
b11111111111111111111111111111111 V
b11111111111111111111111111111111 b
b11111111111111111111111111111111 i
b11111111111111111111111111111111 r
b11111111111111111111111111111111 &"
b1 l
b1 |
b1 m
b1 y
14
#341000
b10 9
b1 1
b1 B
b1 $"
b10 5
b10 ;
b10 ""
#345000
04
#350000
0S
b0 +"
b0 =
b0 '"
b0 %"
b10000 p
b10000 h
b10000 o
b0 I
b0 N
1M
1F
b10000 G
b10000 [
b10000 U
b10000 W
b1000 R
1Z
b0 c
b0 \
b10000000000000000000000000010000 C
b10000000000000000000000000010000 T
b10000000000000000000000000010000 n
b11 {
b11 w
b0 f
b100 a
b0 *"
b0 g
b10010000000000000000000000100101 m
b10010000000000000000000000100101 y
b10000000000000000000000000010000 l
b10000000000000000000000000010000 |
b1 P
1Y
b11 A
b11 `
b11 j
b0 s
b0 E
b0 V
b0 b
b0 i
b0 r
b0 &"
14
#351000
b11 9
bx 1
bx B
bx $"
b11 5
b11 ;
b11 ""
#355000
04
#360000
b1110 +"
bx =
bx '"
b1110 %"
b11111110 p
b11111110 h
b11111110 o
1q
1J
0M
b1111111110 G
b1111111110 [
0F
b11111111111111111111111111111111 c
b11111111111111111111111111111110 U
b1111111110 W
b1100 R
b10 a
b100 {
b100 w
b11001111111111111111111111111110 C
b11001111111111111111111111111110 T
b11001111111111111111111111111110 n
b100 A
b100 `
b100 j
b11001111111111111111111111111110 l
b11001111111111111111111111111110 |
b10000000000000000000000000000000 m
b10000000000000000000000000000000 y
14
#361000
b100 9
b100 5
b100 ;
b100 ""
#365000
04
#370000
b1 +"
b1 \
b1 %"
b1 p
b1 h
b1 o
0q
0J
b1 G
b1 [
1Z
b1 U
b1 W
b0 R
0S
b1 C
b1 T
b1 n
b10 {
b10 w
b100000000000000000000000000000000 f
b0 c
b11 a
b11111111111111111111111111111111 *"
b11111111 g
b1 m
b1 y
b1 l
b1 |
b10 A
b10 `
b10 j
b11111111111111111111111111111111 s
b11111111111111111111111111111111 E
b11111111111111111111111111111111 V
b11111111111111111111111111111111 b
b11111111111111111111111111111111 i
b11111111111111111111111111111111 r
b11111111111111111111111111111111 &"
14
#371000
b101 9
b101 5
b101 ;
b101 ""
#375000
04
#380000
0S
b0 +"
b0 \
b0 =
b0 '"
b0 %"
b10000 p
b10000 h
b10000 o
b0 I
b0 N
1M
1F
b10000 G
b10000 [
b0 c
b10000 U
b10000 W
b1000 R
b11 {
b11 w
b0 f
b100 a
b0 *"
b0 g
b10000000000000000000000000010000 C
b10000000000000000000000000010000 T
b10000000000000000000000000010000 n
b11 A
b11 `
b11 j
b0 s
b0 E
b0 V
b0 b
b0 i
b0 r
b0 &"
b10000000000000000000000000010000 l
b10000000000000000000000000010000 |
b10010000000000000000000000100101 m
b10010000000000000000000000100101 y
14
#381000
b110 9
b110 5
b110 ;
b110 ""
#385000
04
#390000
b1110 +"
bx =
bx '"
b1110 %"
b11111110 p
b11111110 h
b11111110 o
1q
1J
0M
b1111111110 G
b1111111110 [
0F
b11111111111111111111111111111111 c
b11111111111111111111111111111110 U
b1111111110 W
b1100 R
b10 a
b11001111111111111111111111111110 C
b11001111111111111111111111111110 T
b11001111111111111111111111111110 n
b100 {
b100 w
b10000000000000000000000000000000 m
b10000000000000000000000000000000 y
b11001111111111111111111111111110 l
b11001111111111111111111111111110 |
b100 A
b100 `
b100 j
14
#391000
b111 9
b111 5
b111 ;
b111 ""
#395000
04
#400000
b1 +"
b1 \
b1 %"
b1 p
b1 h
b1 o
0q
0J
b1 G
b1 [
1Z
0S
b1 U
b1 W
b0 R
b10 {
b10 w
b100000000000000000000000000000000 f
b0 c
b11 a
b11111111111111111111111111111111 *"
b11111111 g
b1 C
b1 T
b1 n
b10 A
b10 `
b10 j
b11111111111111111111111111111111 s
b11111111111111111111111111111111 E
b11111111111111111111111111111111 V
b11111111111111111111111111111111 b
b11111111111111111111111111111111 i
b11111111111111111111111111111111 r
b11111111111111111111111111111111 &"
b1 l
b1 |
b1 m
b1 y
14
#401000
b1000 9
b1000 5
b1000 ;
b1000 ""
#405000
04
#410000
0S
b0 +"
b0 \
b0 =
b0 '"
b0 %"
b10000 p
b10000 h
b10000 o
b0 I
b0 N
1M
1F
b10000 G
b10000 [
b10000 U
b10000 W
b1000 R
1Z
b0 c
b10000000000000000000000000010000 C
b10000000000000000000000000010000 T
b10000000000000000000000000010000 n
b11 {
b11 w
b0 f
b100 a
b0 *"
b0 g
b10010000000000000000000000100101 m
b10010000000000000000000000100101 y
b10000000000000000000000000010000 l
b10000000000000000000000000010000 |
b11 A
b11 `
b11 j
b0 s
b0 E
b0 V
b0 b
b0 i
b0 r
b0 &"
14
#411000
b1001 9
b1001 5
b1001 ;
b1001 ""
#415000
04
#420000
b1110 +"
bx =
bx '"
b1110 %"
b11111110 p
b11111110 h
b11111110 o
1q
1J
0M
b1111111110 G
b1111111110 [
0F
b11111111111111111111111111111111 c
b11111111111111111111111111111110 U
b1111111110 W
b1100 R
b10 a
b100 {
b100 w
b11001111111111111111111111111110 C
b11001111111111111111111111111110 T
b11001111111111111111111111111110 n
b100 A
b100 `
b100 j
b11001111111111111111111111111110 l
b11001111111111111111111111111110 |
b10000000000000000000000000000000 m
b10000000000000000000000000000000 y
14
#421000
b1010 9
b1010 5
b1010 ;
b1010 ""
#425000
04
#430000
b1 +"
b1 \
b1 %"
b1 p
b1 h
b1 o
0q
0J
b1 G
b1 [
1Z
b1 U
b1 W
b0 R
0S
b1 C
b1 T
b1 n
b10 {
b10 w
b100000000000000000000000000000000 f
b0 c
b11 a
b11111111111111111111111111111111 *"
b11111111 g
b1 m
b1 y
b1 l
b1 |
b10 A
b10 `
b10 j
b11111111111111111111111111111111 s
b11111111111111111111111111111111 E
b11111111111111111111111111111111 V
b11111111111111111111111111111111 b
b11111111111111111111111111111111 i
b11111111111111111111111111111111 r
b11111111111111111111111111111111 &"
14
#431000
b1011 9
b1011 5
b1011 ;
b1011 ""
#435000
04
#440000
0S
b0 +"
b0 \
b0 =
b0 '"
b0 %"
b10000 p
b10000 h
b10000 o
b0 I
b0 N
1M
1F
b10000 G
b10000 [
b0 c
b10000 U
b10000 W
b1000 R
b11 {
b11 w
b0 f
b100 a
b0 *"
b0 g
b10000000000000000000000000010000 C
b10000000000000000000000000010000 T
b10000000000000000000000000010000 n
b11 A
b11 `
b11 j
b0 s
b0 E
b0 V
b0 b
b0 i
b0 r
b0 &"
b10000000000000000000000000010000 l
b10000000000000000000000000010000 |
b10010000000000000000000000100101 m
b10010000000000000000000000100101 y
14
#441000
b1100 9
b1100 5
b1100 ;
b1100 ""
#445000
04
#450000
b1110 +"
bx =
bx '"
b1110 %"
b11111110 p
b11111110 h
b11111110 o
1q
1J
0M
b1111111110 G
b1111111110 [
0F
b11111111111111111111111111111111 c
b11111111111111111111111111111110 U
b1111111110 W
b1100 R
b10 a
b11001111111111111111111111111110 C
b11001111111111111111111111111110 T
b11001111111111111111111111111110 n
b100 {
b100 w
b10000000000000000000000000000000 m
b10000000000000000000000000000000 y
b11001111111111111111111111111110 l
b11001111111111111111111111111110 |
b100 A
b100 `
b100 j
14
#451000
b1101 9
b1101 5
b1101 ;
b1101 ""
#455000
04
#460000
b1 +"
b1 \
b1 %"
b1 p
b1 h
b1 o
0q
0J
b1 G
b1 [
1Z
0S
b1 U
b1 W
b0 R
b10 {
b10 w
b100000000000000000000000000000000 f
b0 c
b11 a
b11111111111111111111111111111111 *"
b11111111 g
b1 C
b1 T
b1 n
b10 A
b10 `
b10 j
b11111111111111111111111111111111 s
b11111111111111111111111111111111 E
b11111111111111111111111111111111 V
b11111111111111111111111111111111 b
b11111111111111111111111111111111 i
b11111111111111111111111111111111 r
b11111111111111111111111111111111 &"
b1 l
b1 |
b1 m
b1 y
14
#461000
b1110 9
b1110 5
b1110 ;
b1110 ""
#465000
04
